The ggseg_atlas object
…
atlas_vertices() returns the vertex data for cortical 3D
rendering:

vert_data <- atlas_vertices(dk())
vert_data
#> ── <ggseg_vertices> data: 70 × 6 ───────────────────────────────────────────────
#> Vertices per region: 18 –759
#> # A tibble: 70 × 6
#>    label                      vertices    hemi  region              lobe  colour
#>    <chr>                      <list>      <chr> <chr>               <chr> <chr> 
#>  1 lh_bankssts                <int [126]> left  banks of superior … temp… #1964…
#>  2 lh_caudalanteriorcingulate <int [67]>  left  caudal anterior ci… cing… #7D64…
#>  3 lh_caudalmiddlefrontal     <int [232]> left  caudal middle fron… fron… #6419…
#>  4 lh_corpuscallosum          <int [198]> left  corpus callosum     whit… #7846…
#>  5 lh_cuneus                  <int [102]> left  cuneus              occi… #DC14…
#>  6 lh_entorhinal              <int [48]>  left  entorhinal          temp… #DC14…
#>  7 lh_fusiform                <int [308]> left  fusiform            temp… #B4DC…
#>  8 lh_inferiorparietal        <int [484]> left  inferior parietal   pari… #DC3C…
#>  9 lh_inferiortemporal        <int [271]> left  inferior temporal   temp… #B428…
#> 10 lh_isthmuscingulate        <int [123]> left  isthmus cingulate   cing… #8C14…
#> # ℹ 60 more rows

atlas_meshes() returns mesh data for subcortical or
tract 3D rendering:

mesh_data <- atlas_meshes(aseg())
mesh_data
#> ── <ggseg_meshes> data: 47 × 6 ─────────────────────────────────────────────────
#> # A tibble: 47 × 3
#>    label                  vertices faces
#>    <chr>                     <int> <int>
#>  1 Left-Cerebellum-Cortex    21232 42456
#>  2 Left-Cerebellum-Cortex    21232 42456
#>  3 Left-Thalamus              3726  7448
#>  4 Left-Thalamus              3726  7448
#>  5 Left-Thalamus              3726  7448
#>  6 Left-Thalamus              3726  7448
#>  7 Left-Caudate               3026  6056
#>  8 Left-Caudate               3026  6056
#>  9 Left-Putamen               3994  7984
#> 10 Left-Putamen               3994  7984
#> # ℹ 37 more rows
…
